…
A data.frame with multiple rows it is. 



#### Look at the results of the toy example

Strange, when I call the resulting object from `runSimulation()` I get a tibble with some stats, but no results:

```r
#> # A tibble: 27 × 7
#>        n  pmem kappa REPLICATIONS SIM_TIME       SEED COMPLETED               
#>    <dbl> <dbl> <dbl>        <dbl> <chr>         <int> <chr>                   
#>  1    20   0.3     2            2 0.02s    1067494386 Mon Dec  2 07:12:04 2024
#>  2    50   0.3     2            2 0.02s    1016705019 Mon Dec  2 07:12:04 2024
#>  3   100   0.3     2            2 0.02s     722626823 Mon Dec  2 07:12:04 2024
#>  4    20   0.6     2            2 0.02s     831982255 Mon Dec  2 07:12:04 2024
#>  5    50   0.6     2            2 0.01s     768366952 Mon Dec  2 07:12:04 2024
#>  6   100   0.6     2            2 0.01s     304278543 Mon Dec  2 07:12:04 2024
#>  7    20   0.9     2            2 0.01s      65199313 Mon Dec  2 07:12:04 2024
#>  8    50   0.9     2            2 0.01s    1432496718 Mon Dec  2 07:12:04 2024
#>  9   100   0.9     2            2 0.01s    1874577138 Mon Dec  2 07:12:04 2024
#> 10    20   0.3     8            2 0.01s     516980583 Mon Dec  2 07:12:04 2024
#> # ℹ 17 more rows
#> # ℹ Use `print(n = ...)` to see more rows
```
