…
A cool, it forces the result to be of the same form as the output of
Analyze. This is important and I should remember this.

### Step 4: Look at the results of the toy example

Strange, when I call the resulting object from `runSimulation()` I get a
tibble with some stats, but no results:

``` r
res
```

    # A tibble: 27 × 7
           n  pmem kappa REPLICATIONS SIM_TIME       SEED COMPLETED               
       <dbl> <dbl> <dbl>        <dbl> <chr>         <int> <chr>                   
     1    20   0.3     2            4 0.02s    1697164363 Mon Dec  2 12:47:20 2024
     2    50   0.3     2            4 0.02s    1552967362 Mon Dec  2 12:47:20 2024
     3   100   0.3     2            4 0.03s    2118188717 Mon Dec  2 12:47:20 2024
     4    20   0.6     2            4 0.02s    2072642104 Mon Dec  2 12:47:20 2024
     5    50   0.6     2            4 0.02s    1258856439 Mon Dec  2 12:47:20 2024
     6   100   0.6     2            4 0.02s    1651008935 Mon Dec  2 12:47:20 2024
     7    20   0.9     2            4 0.03s    1348069160 Mon Dec  2 12:47:20 2024
     8    50   0.9     2            4 0.02s    1081097633 Mon Dec  2 12:47:20 2024
     9   100   0.9     2            4 0.02s    1716875653 Mon Dec  2 12:47:20 2024
    10    20   0.3     8            4 0.02s    2025617480 Mon Dec  2 12:47:20 2024
    # ℹ 17 more rows
…
res <- runSimulation(
  design = Design, replications = 100, generate = Generate,
  analyse = Analyse, summarise = Summarise, verbose = FALSE,
  parallel = TRUE, ncores = 10,
  save_results = TRUE, save_details = list(save_results_dirname = "output/SimDesign")
)

res
```

    # A tibble: 27 × 11
           n  pmem kappa bias_kappa  bias_pmem rmse_kappa rmse_pmem REPLICATIONS
       <dbl> <dbl> <dbl>      <dbl>      <dbl>      <dbl>     <dbl>        <dbl>
     1    20   0.3     2  381.59     0.2511    3720.0      0.44018           100
     2    50   0.3     2   50.418    0.18631    342.14     0.39383           100
     3   100   0.3     2    7.1002   0.14614     49.018    0.32880           100
     4    20   0.6     2    1.8454   0.11249      8.5142   0.27691           100
     5    50   0.6     2    0.96463  0.07346      5.7034   0.24722           100
     6   100   0.6     2    0.39601  0.030500     1.3874   0.17836           100
     7    20   0.9     2    2.1102  -0.0027400   14.638    0.13676           100
     8    50   0.9     2    0.25489  0.0025300    0.84006  0.099106          100
     9   100   0.9     2    0.21434  0.0022700    0.60814  0.090253          100
    10    20   0.3     8    9.6771   0.12049     52.535    0.29305           100
    # ℹ 17 more rows
    # ℹ 3 more variables: SIM_TIME <chr>, SEED <int>, COMPLETED <chr>
…
and the results are:

``` r
SimResults(tutorial_res)
```

    # A tibble: 8,000 × 6
       sample_size distribution mean_no_trim mean_trim.1 mean_trim.2 median
             <dbl> <chr>               <dbl>       <dbl>       <dbl>  <dbl>
     1          30 norm                 2.69        2.70        2.70   2.75
     2          30 norm                 2.86        2.86        2.85   2.95
     3          30 norm                 3.01        2.97        3.00   3.05
     4          30 norm                 2.95        2.97        2.94   2.74
     5          30 norm                 2.85        2.84        2.81   2.67
     6          30 norm                 2.91        2.99        3.00   3.11
     7          30 norm                 3.03        3.08        3.10   3.29
     8          30 norm                 3.20        3.15        3.14   3.22
     9          30 norm                 2.87        2.88        2.90   2.88
    10          30 norm                 2.87        2.94        2.95   2.90
    # ℹ 7,990 more rows
…
Hmm, no difference again. Can it be because I am using “save_results”,
instead of “store_results”? Let’s try that:

``` r
res <- runSimulation(
  design = Design, replications = 10, generate = Generate,
  analyse = Analyse, summarise = Summarise, verbose = FALSE,
)

SimResults(res)
```

    # A tibble: 270 × 5
           n  pmem kappa kappa_est pmem_est
       <dbl> <dbl> <dbl>     <dbl>    <dbl>
     1    20   0.3     2     0.592    1    
     2    20   0.3     2    13.8      0.287
     3    20   0.3     2     0.809    0.631
     4    20   0.3     2     0.73     1    
     5    20   0.3     2    12.3      0.289
     6    20   0.3     2   391.       0.119
     7    20   0.3     2    39.0      0.114
     8    20   0.3     2     2.79     0.309
     9    20   0.3     2     2.58     0.546
    10    20   0.3     2     0.016    0.998
    # ℹ 260 more rows
…
