…
A cool, it forces the result to be of the same form as the output of
Analyze. This is important and I should remember this.

### Step 4: Look at the results of the toy example

Strange, when I call the resulting object from `runSimulation()` I get a
tibble with some stats, but no results:

``` r
res
```

    # A tibble: 27 × 7
           n  pmem kappa REPLICATIONS SIM_TIME       SEED COMPLETED               
       <dbl> <dbl> <dbl>        <dbl> <chr>         <int> <chr>                   
     1    20   0.3     2            4 0.04s    2016921863 Mon Dec  2 12:42:29 2024
     2    50   0.3     2            4 0.02s    1374640086 Mon Dec  2 12:42:29 2024
     3   100   0.3     2            4 0.03s    1057221823 Mon Dec  2 12:42:29 2024
     4    20   0.6     2            4 0.02s    1984374951 Mon Dec  2 12:42:29 2024
     5    50   0.6     2            4 0.02s     953673063 Mon Dec  2 12:42:29 2024
     6   100   0.6     2            4 0.02s    1733400810 Mon Dec  2 12:42:30 2024
     7    20   0.9     2            4 0.03s    1860787378 Mon Dec  2 12:42:30 2024
     8    50   0.9     2            4 0.02s    1879820661 Mon Dec  2 12:42:30 2024
     9   100   0.9     2            4 0.02s     901099047 Mon Dec  2 12:42:30 2024
    10    20   0.3     8            4 0.02s      27517664 Mon Dec  2 12:42:30 2024
    # ℹ 17 more rows
…
res <- runSimulation(
  design = Design, replications = 100, generate = Generate,
  analyse = Analyse, summarise = Summarise, verbose = FALSE,
  parallel = TRUE, ncores = 10,
  save_results = TRUE, save_details = list(save_results_dirname = "output/SimDesign")
)

res
```

    # A tibble: 27 × 11
           n  pmem kappa bias_kappa  bias_pmem rmse_kappa rmse_pmem REPLICATIONS
       <dbl> <dbl> <dbl>      <dbl>      <dbl>      <dbl>     <dbl>        <dbl>
     1    20   0.3     2   12.794    0.18743     62.159    0.40664           100
     2    50   0.3     2    6.5307   0.17631     37.762    0.38792           100
     3   100   0.3     2    0.80887  0.20429      4.2227   0.38176           100
     4    20   0.6     2  145.54     0.09367   1392.9      0.28355           100
     5    50   0.6     2    0.44318  0.08764      2.4085   0.24050           100
     6   100   0.6     2    0.29618  0.027360     1.2214   0.16118           100
     7    20   0.9     2    5.2460   0.0032100   45.115    0.16174           100
     8    50   0.9     2    0.27462  0.0024700    0.85246  0.11079           100
     9   100   0.9     2    0.08538 -0.012500     0.54110  0.092728          100
    10    20   0.3     8    5.2240   0.10191     28.524    0.27314           100
    # ℹ 17 more rows
    # ℹ 3 more variables: SIM_TIME <chr>, SEED <int>, COMPLETED <chr>
…
and the results are:

``` r
SimResults(tutorial_res)
```

    # A tibble: 8,000 × 6
       sample_size distribution mean_no_trim mean_trim.1 mean_trim.2 median
             <dbl> <chr>               <dbl>       <dbl>       <dbl>  <dbl>
     1          30 norm                 3.05        3.03        3.03   3.11
     2          30 norm                 3.08        3.00        2.91   2.89
     3          30 norm                 3.00        3.01        3.00   3.04
     4          30 norm                 2.88        2.92        2.91   2.99
     5          30 norm                 2.67        2.57        2.54   2.76
     6          30 norm                 2.83        2.87        2.83   2.72
     7          30 norm                 3.01        2.97        2.94   2.94
     8          30 norm                 2.97        2.96        2.98   3.08
     9          30 norm                 3.28        3.37        3.42   3.35
    10          30 norm                 3.05        3.10        3.10   3.00
    # ℹ 7,990 more rows
…
Hmm, no difference again. Can it be because I am using “save_results”,
instead of “store_results”? Let’s try that:

``` r
res <- runSimulation(
  design = Design, replications = 10, generate = Generate,
  analyse = Analyse, summarise = Summarise, verbose = FALSE,
)

SimResults(res)
```

    # A tibble: 270 × 5
           n  pmem kappa kappa_est pmem_est
       <dbl> <dbl> <dbl>     <dbl>    <dbl>
     1    20   0.3     2      7.38    0.129
     2    20   0.3     2      0       0    
     3    20   0.3     2      0       0    
     4    20   0.3     2      3.18    0.403
     5    20   0.3     2    111.      0.274
     6    20   0.3     2      3.00    0.359
     7    20   0.3     2      4.18    0.395
     8    20   0.3     2      2.36    0.347
     9    20   0.3     2      4.74    0.396
    10    20   0.3     2      1.78    0.571
    # ℹ 260 more rows
…
